

 NAS Parallel Benchmarks 3.4 -- LU Benchmark

 Size: 1020x1020x1020  (class E)
 Iterations:  300
 Total number of processes:     4

 Error encountered in allocating space
 Error encountered in allocating space
 Error encountered in allocating space
 Error encountered in allocating space
